<?xml version="1.0" encoding="utf-8"?>
<!-- Generator: Adobe Illustrator 16.0.4, SVG Export Plug-In . SVG Version: 6.00 Build 0)  -->
<svg version="1.2" baseProfile="tiny" id="Layer_1" xmlns="http://www.w3.org/2000/svg" xmlns:xlink="http://www.w3.org/1999/xlink"
	 x="0px" y="0px" width="85.546px" height="84.085px" viewBox="0 0 85.546 84.085" xml:space="preserve">
<g>
	
		<rect x="29.931" y="10.886" transform="matrix(-0.7071 -0.7071 0.7071 -0.7071 56.0186 70.2211)" fill="none" stroke="#00A8B9" stroke-width="8" stroke-linecap="round" stroke-miterlimit="10" width="25.245" height="25.243"/>
	
		<rect x="30.15" y="47.248" transform="matrix(-0.7071 -0.7071 0.7071 -0.7071 30.6859 132.4517)" fill="none" stroke="#00A8B9" stroke-width="9" stroke-miterlimit="10" width="25.245" height="25.246"/>
	<path fill="none" stroke="#42C3D2" stroke-width="0.935" stroke-miterlimit="10" d="M42.772,42.021"/>
	<polyline fill="none" stroke="#7ED0DF" stroke-width="10" stroke-linecap="round" stroke-miterlimit="10" points="24.923,59.87 
		7.071,42.021 24.923,24.169 	"/>
	<path fill="none" stroke="#42C3D2" stroke-width="1.4025" stroke-miterlimit="10" d="M42.772,42.021"/>
	<polyline fill="none" stroke="#7ED0DF" stroke-width="10" stroke-linecap="round" stroke-miterlimit="10" points="60.624,24.169 
		78.476,42.021 60.624,59.87 	"/>
</g>
</svg>
